Introduction to tidyverse - A new grammar
…
#Question 5
envdata %>% 
  rename_all(.funs=~paste("cute", ., sep="_"))

## # A tibble: 217 x 6
##    cute_species    cute_country       cute_Lon cute_Lat cute_Temp cute_P
##    <chr>           <chr>                 <dbl>    <dbl>     <dbl>  <dbl>
##  1 Felis manul     Mongolia              113.      46.1       1.6    218
##  2 Felis manul     China                 103.      33.8       2      612
##  3 Felis manul     China                  99.6     35.9      -4.1    423
##  4 Felis manul     Russian Federation     89.4     49.9      -6      138
##  5 Felis manul     Russian Federation     88.3     50.2      -2.2    133
##  6 Felis manul     Russian Federation    115.      50.1       0.9    298
##  7 Felis manul     Afghanistan            69.2     34.5      12.1    357
##  8 Felis manul     Afghanistan            68.9     36.7      18.5    295
##  9 Caracal caracal South Africa           25.8    -33.4      19.4    460
## 10 Caracal caracal Chad                   19.8     10.8      26.9    874
## # ... with 207 more rows
